Project 1: Wrangling, Exploration, Visualization
…
median

max

avescoreacrossplatform <- function(x, y) {
    # this function will give us the average score of the games
    # across the two platforms
    0.5 * (mean(x) + mean(y))
}

mG2 %>% group_by(Publisher) %>% summarize(Averagescore = avescoreacrossplatform(PS4, 
    XONE)) %>% na.omit()  #This will give us the average score of the games released by a Publisher between the Xbox one and PS4 metacritic score

## # A tibble: 56 x 2
##    Publisher             Averagescore
##    <fct>                        <dbl>
##  1 ""                            69.2
##  2 "2K Games"                    74.8
##  3 "2K Sports"                   78.8
##  4 "505 Games"                   71.6
##  5 "Active Gaming Media"         78  
##  6 "Activision"                  72.4
##  7 "Badland Studio"              79.5
##  8 "Bandai Namco Games"          71.5
##  9 "Bethesda Softworks"          81.6
## 10 "Bigben Interactive"          67.5
## #  with 46 more rows
…
mG2 %>% group_by(Publisher) %>% summarize(n = n()) %>% arrange(desc(n))

## # A tibble: 56 x 2
##    Publisher                                    n
##    <fct>                                    <int>
##  1 ""                                          27
##  2 "Ubisoft"                                   19
##  3 "EA Sports"                                 17
##  4 "Activision"                                14
##  5 "Electronic Arts"                           10
##  6 "Warner Bros. Interactive Entertainment"    10
##  7 "Namco Bandai Games"                         9
##  8 "Bethesda Softworks"                         8
##  9 "2K Sports"                                  7
## 10 "505 Games"                                  7
## #  with 46 more rows
…
